<mxfile host="app.diagrams.net" modified="2020-07-26T07:12:45.105Z" agent="5.0 (X11; Linux x86_64) AppleWebKit/537.36 (KHTML, like Gecko) Chrome/84.0.4147.89 Safari/537.36" etag="wev-1BUZI4CE4RPD4S8Z" version="13.5.3" type="gitlab">
  <diagram id="7jOZuJEqCrGyhItta2_P" name="Page-1">
    <mxGraphModel dx="1359" dy="797" grid="1" gridSize="10" guides="1" tooltips="1" connect="1" arrows="1" fold="1" page="1" pageScale="1" pageWidth="850" pageHeight="1100" math="0" shadow="0">
      <root>
        <mxCell id="0" />
        <mxCell id="1" parent="0" />
        <mxCell id="c5_Fyukw7GEvBMMYSHbx-38" value="" style="edgeStyle=orthogonalEdgeStyle;rounded=0;orthogonalLoop=1;jettySize=auto;html=1;verticalAlign=middle;" parent="1" source="c5_Fyukw7GEvBMMYSHbx-25" target="c5_Fyukw7GEvBMMYSHbx-27" edge="1">
          <mxGeometry relative="1" as="geometry" />
        </mxCell>
        <mxCell id="c5_Fyukw7GEvBMMYSHbx-25" value="Alokasi Data Anggota&lt;br&gt;Pada Memori" style="whiteSpace=wrap;html=1;verticalAlign=middle;" parent="1" vertex="1">
          <mxGeometry x="25" y="400" width="120" height="40" as="geometry" />
        </mxCell>
        <mxCell id="c5_Fyukw7GEvBMMYSHbx-12" value="" style="edgeStyle=orthogonalEdgeStyle;rounded=0;orthogonalLoop=1;jettySize=auto;html=1;verticalAlign=middle;" parent="1" source="c5_Fyukw7GEvBMMYSHbx-10" target="c5_Fyukw7GEvBMMYSHbx-11" edge="1">
          <mxGeometry relative="1" as="geometry">
            <Array as="points">
              <mxPoint x="485" y="90" />
            </Array>
          </mxGeometry>
        </mxCell>
        <mxCell id="c5_Fyukw7GEvBMMYSHbx-10" value="C" style="verticalLabelPosition=bottom;verticalAlign=middle;html=1;shape=mxgraph.flowchart.on-page_reference;" parent="1" vertex="1">
          <mxGeometry x="425" y="70" width="40" height="40" as="geometry" />
        </mxCell>
        <mxCell id="c5_Fyukw7GEvBMMYSHbx-14" value="" style="edgeStyle=orthogonalEdgeStyle;rounded=0;orthogonalLoop=1;jettySize=auto;html=1;verticalAlign=middle;" parent="1" source="c5_Fyukw7GEvBMMYSHbx-11" target="c5_Fyukw7GEvBMMYSHbx-13" edge="1">
          <mxGeometry relative="1" as="geometry" />
        </mxCell>
        <mxCell id="c5_Fyukw7GEvBMMYSHbx-17" value="" style="edgeStyle=orthogonalEdgeStyle;rounded=0;orthogonalLoop=1;jettySize=auto;html=1;verticalAlign=middle;" parent="1" source="c5_Fyukw7GEvBMMYSHbx-11" target="c5_Fyukw7GEvBMMYSHbx-16" edge="1">
          <mxGeometry relative="1" as="geometry" />
        </mxCell>
        <mxCell id="c5_Fyukw7GEvBMMYSHbx-11" value="Kembali" style="rhombus;whiteSpace=wrap;html=1;verticalAlign=middle;direction=south;" parent="1" vertex="1">
          <mxGeometry x="445" y="120" width="80" height="80" as="geometry" />
        </mxCell>
        <mxCell id="c5_Fyukw7GEvBMMYSHbx-13" value="&lt;font style=&quot;font-size: 15px&quot;&gt;break&lt;/font&gt;" style="whiteSpace=wrap;html=1;verticalAlign=middle;" parent="1" vertex="1">
          <mxGeometry x="425" y="220" width="120" height="30" as="geometry" />
        </mxCell>
        <mxCell id="c5_Fyukw7GEvBMMYSHbx-15" value="yes" style="text;html=1;align=center;verticalAlign=middle;resizable=0;points=[];autosize=1;" parent="1" vertex="1">
          <mxGeometry x="490" y="200" width="30" height="20" as="geometry" />
        </mxCell>
        <mxCell id="c5_Fyukw7GEvBMMYSHbx-16" value="D" style="verticalLabelPosition=bottom;verticalAlign=middle;html=1;shape=mxgraph.flowchart.on-page_reference;" parent="1" vertex="1">
          <mxGeometry x="575" y="140" width="40" height="40" as="geometry" />
        </mxCell>
        <mxCell id="c5_Fyukw7GEvBMMYSHbx-18" value="no" style="text;html=1;align=center;verticalAlign=middle;resizable=0;points=[];autosize=1;" parent="1" vertex="1">
          <mxGeometry x="540" y="140" width="30" height="20" as="geometry" />
        </mxCell>
        <mxCell id="c5_Fyukw7GEvBMMYSHbx-21" value="" style="edgeStyle=orthogonalEdgeStyle;rounded=0;orthogonalLoop=1;jettySize=auto;html=1;verticalAlign=middle;" parent="1" source="c5_Fyukw7GEvBMMYSHbx-19" target="c5_Fyukw7GEvBMMYSHbx-20" edge="1">
          <mxGeometry relative="1" as="geometry" />
        </mxCell>
        <mxCell id="c5_Fyukw7GEvBMMYSHbx-19" value="E" style="verticalLabelPosition=bottom;verticalAlign=middle;html=1;shape=mxgraph.flowchart.on-page_reference;" parent="1" vertex="1">
          <mxGeometry x="150" y="90" width="40" height="40" as="geometry" />
        </mxCell>
        <mxCell id="c5_Fyukw7GEvBMMYSHbx-23" value="" style="edgeStyle=orthogonalEdgeStyle;rounded=0;orthogonalLoop=1;jettySize=auto;html=1;verticalAlign=middle;" parent="1" source="c5_Fyukw7GEvBMMYSHbx-20" target="c5_Fyukw7GEvBMMYSHbx-22" edge="1">
          <mxGeometry relative="1" as="geometry" />
        </mxCell>
        <mxCell id="c5_Fyukw7GEvBMMYSHbx-32" value="" style="edgeStyle=orthogonalEdgeStyle;rounded=0;orthogonalLoop=1;jettySize=auto;html=1;verticalAlign=middle;" parent="1" source="c5_Fyukw7GEvBMMYSHbx-20" target="c5_Fyukw7GEvBMMYSHbx-31" edge="1">
          <mxGeometry relative="1" as="geometry" />
        </mxCell>
        <mxCell id="c5_Fyukw7GEvBMMYSHbx-20" value="&lt;font style=&quot;font-size: 14px&quot;&gt;&lt;br&gt;Tambah Data Anggota Di&lt;br&gt;&amp;nbsp;Awal&lt;br&gt;&lt;/font&gt;" style="rhombus;whiteSpace=wrap;html=1;verticalAlign=middle;" parent="1" vertex="1">
          <mxGeometry x="30" y="165" width="110" height="110" as="geometry" />
        </mxCell>
        <mxCell id="c5_Fyukw7GEvBMMYSHbx-26" value="" style="edgeStyle=orthogonalEdgeStyle;rounded=0;orthogonalLoop=1;jettySize=auto;html=1;verticalAlign=middle;" parent="1" source="c5_Fyukw7GEvBMMYSHbx-22" target="c5_Fyukw7GEvBMMYSHbx-25" edge="1">
          <mxGeometry relative="1" as="geometry" />
        </mxCell>
        <mxCell id="c5_Fyukw7GEvBMMYSHbx-22" value="Input&amp;nbsp;&lt;br&gt;Data&lt;br&gt;Anggota&lt;br&gt;Baru" style="shape=parallelogram;perimeter=parallelogramPerimeter;whiteSpace=wrap;html=1;fixedSize=1;verticalAlign=middle;" parent="1" vertex="1">
          <mxGeometry x="25" y="310" width="120" height="60" as="geometry" />
        </mxCell>
        <mxCell id="c5_Fyukw7GEvBMMYSHbx-24" value="yes" style="text;html=1;align=center;verticalAlign=middle;resizable=0;points=[];autosize=1;" parent="1" vertex="1">
          <mxGeometry x="85" y="278" width="30" height="20" as="geometry" />
        </mxCell>
        <mxCell id="c5_Fyukw7GEvBMMYSHbx-30" value="" style="edgeStyle=orthogonalEdgeStyle;rounded=0;orthogonalLoop=1;jettySize=auto;html=1;verticalAlign=middle;" parent="1" source="c5_Fyukw7GEvBMMYSHbx-27" target="c5_Fyukw7GEvBMMYSHbx-29" edge="1">
          <mxGeometry relative="1" as="geometry" />
        </mxCell>
        <mxCell id="c5_Fyukw7GEvBMMYSHbx-27" value="&lt;span&gt;Menambahkan Data Anggota Baru Pada Awal List&lt;/span&gt;" style="whiteSpace=wrap;html=1;verticalAlign=middle;" parent="1" vertex="1">
          <mxGeometry x="25" y="480" width="120" height="50" as="geometry" />
        </mxCell>
        <mxCell id="c5_Fyukw7GEvBMMYSHbx-29" value="B" style="verticalLabelPosition=bottom;verticalAlign=middle;html=1;shape=mxgraph.flowchart.on-page_reference;" parent="1" vertex="1">
          <mxGeometry x="190" y="485" width="40" height="40" as="geometry" />
        </mxCell>
        <mxCell id="c5_Fyukw7GEvBMMYSHbx-35" value="" style="edgeStyle=orthogonalEdgeStyle;rounded=0;orthogonalLoop=1;jettySize=auto;html=1;verticalAlign=middle;" parent="1" source="c5_Fyukw7GEvBMMYSHbx-31" target="c5_Fyukw7GEvBMMYSHbx-34" edge="1">
          <mxGeometry relative="1" as="geometry" />
        </mxCell>
        <mxCell id="RBTdbjBAQ5LayfFTRaJk-5" value="" style="edgeStyle=orthogonalEdgeStyle;rounded=0;orthogonalLoop=1;jettySize=auto;html=1;verticalAlign=middle;" edge="1" parent="1" source="c5_Fyukw7GEvBMMYSHbx-31" target="RBTdbjBAQ5LayfFTRaJk-4">
          <mxGeometry relative="1" as="geometry" />
        </mxCell>
        <mxCell id="c5_Fyukw7GEvBMMYSHbx-31" value="&lt;span style=&quot;font-size: 14px&quot;&gt;Tambah&lt;/span&gt;&lt;br style=&quot;font-size: 14px&quot;&gt;&lt;span style=&quot;font-size: 14px&quot;&gt;Data&lt;/span&gt;&lt;br style=&quot;font-size: 14px&quot;&gt;&lt;span style=&quot;font-size: 14px&quot;&gt;Anggota&lt;/span&gt;&lt;br style=&quot;font-size: 14px&quot;&gt;&lt;span style=&quot;font-size: 14px&quot;&gt;Di Akhir&lt;/span&gt;" style="rhombus;whiteSpace=wrap;html=1;verticalAlign=middle;" parent="1" vertex="1">
          <mxGeometry x="170" y="160" width="120" height="120" as="geometry" />
        </mxCell>
        <mxCell id="c5_Fyukw7GEvBMMYSHbx-33" value="no" style="text;html=1;align=center;verticalAlign=middle;resizable=0;points=[];autosize=1;" parent="1" vertex="1">
          <mxGeometry x="135" y="200" width="30" height="20" as="geometry" />
        </mxCell>
        <mxCell id="c5_Fyukw7GEvBMMYSHbx-34" value="F" style="verticalLabelPosition=bottom;verticalAlign=middle;html=1;shape=mxgraph.flowchart.on-page_reference;" parent="1" vertex="1">
          <mxGeometry x="210" y="320" width="40" height="40" as="geometry" />
        </mxCell>
        <mxCell id="c5_Fyukw7GEvBMMYSHbx-36" value="yes" style="text;html=1;align=center;verticalAlign=middle;resizable=0;points=[];autosize=1;" parent="1" vertex="1">
          <mxGeometry x="235" y="290" width="30" height="20" as="geometry" />
        </mxCell>
        <mxCell id="RBTdbjBAQ5LayfFTRaJk-8" value="" style="edgeStyle=orthogonalEdgeStyle;rounded=0;orthogonalLoop=1;jettySize=auto;html=1;verticalAlign=middle;" edge="1" parent="1" source="RBTdbjBAQ5LayfFTRaJk-4" target="RBTdbjBAQ5LayfFTRaJk-7">
          <mxGeometry relative="1" as="geometry" />
        </mxCell>
        <mxCell id="RBTdbjBAQ5LayfFTRaJk-20" value="" style="edgeStyle=orthogonalEdgeStyle;rounded=0;orthogonalLoop=1;jettySize=auto;html=1;verticalAlign=middle;" edge="1" parent="1" source="RBTdbjBAQ5LayfFTRaJk-4" target="RBTdbjBAQ5LayfFTRaJk-19">
          <mxGeometry relative="1" as="geometry" />
        </mxCell>
        <mxCell id="RBTdbjBAQ5LayfFTRaJk-4" value="Delete&lt;br&gt;Anggota" style="rhombus;whiteSpace=wrap;html=1;verticalAlign=middle;" vertex="1" parent="1">
          <mxGeometry x="320" y="290" width="80" height="80" as="geometry" />
        </mxCell>
        <mxCell id="RBTdbjBAQ5LayfFTRaJk-6" value="no" style="text;html=1;align=center;verticalAlign=middle;resizable=0;points=[];autosize=1;" vertex="1" parent="1">
          <mxGeometry x="315" y="200" width="30" height="20" as="geometry" />
        </mxCell>
        <mxCell id="RBTdbjBAQ5LayfFTRaJk-10" value="" style="edgeStyle=orthogonalEdgeStyle;rounded=0;orthogonalLoop=1;jettySize=auto;html=1;verticalAlign=middle;" edge="1" parent="1" source="RBTdbjBAQ5LayfFTRaJk-7" target="RBTdbjBAQ5LayfFTRaJk-9">
          <mxGeometry relative="1" as="geometry" />
        </mxCell>
        <mxCell id="RBTdbjBAQ5LayfFTRaJk-7" value="&lt;br&gt;Input Nim" style="shape=parallelogram;perimeter=parallelogramPerimeter;whiteSpace=wrap;html=1;fixedSize=1;verticalAlign=middle;" vertex="1" parent="1">
          <mxGeometry x="300" y="410" width="120" height="60" as="geometry" />
        </mxCell>
        <mxCell id="RBTdbjBAQ5LayfFTRaJk-12" value="" style="edgeStyle=orthogonalEdgeStyle;rounded=0;orthogonalLoop=1;jettySize=auto;html=1;verticalAlign=middle;" edge="1" parent="1" source="RBTdbjBAQ5LayfFTRaJk-9" target="RBTdbjBAQ5LayfFTRaJk-11">
          <mxGeometry relative="1" as="geometry" />
        </mxCell>
        <mxCell id="RBTdbjBAQ5LayfFTRaJk-15" value="" style="edgeStyle=orthogonalEdgeStyle;rounded=0;orthogonalLoop=1;jettySize=auto;html=1;verticalAlign=middle;" edge="1" parent="1" source="RBTdbjBAQ5LayfFTRaJk-9" target="RBTdbjBAQ5LayfFTRaJk-14">
          <mxGeometry relative="1" as="geometry">
            <Array as="points">
              <mxPoint x="360" y="640" />
            </Array>
          </mxGeometry>
        </mxCell>
        <mxCell id="RBTdbjBAQ5LayfFTRaJk-9" value="Ketemu" style="rhombus;whiteSpace=wrap;html=1;verticalAlign=middle;" vertex="1" parent="1">
          <mxGeometry x="320" y="500" width="80" height="80" as="geometry" />
        </mxCell>
        <mxCell id="RBTdbjBAQ5LayfFTRaJk-16" value="" style="edgeStyle=orthogonalEdgeStyle;rounded=0;orthogonalLoop=1;jettySize=auto;html=1;verticalAlign=middle;" edge="1" parent="1" source="RBTdbjBAQ5LayfFTRaJk-11" target="RBTdbjBAQ5LayfFTRaJk-14">
          <mxGeometry relative="1" as="geometry">
            <Array as="points">
              <mxPoint x="500" y="640" />
            </Array>
          </mxGeometry>
        </mxCell>
        <mxCell id="RBTdbjBAQ5LayfFTRaJk-11" value="Hapus Data Anggota" style="whiteSpace=wrap;html=1;verticalAlign=middle;" vertex="1" parent="1">
          <mxGeometry x="445" y="525" width="120" height="30" as="geometry" />
        </mxCell>
        <mxCell id="RBTdbjBAQ5LayfFTRaJk-13" value="yes" style="text;html=1;align=center;verticalAlign=middle;resizable=0;points=[];autosize=1;" vertex="1" parent="1">
          <mxGeometry x="399" y="520" width="30" height="20" as="geometry" />
        </mxCell>
        <mxCell id="RBTdbjBAQ5LayfFTRaJk-14" value="B" style="verticalLabelPosition=bottom;verticalAlign=middle;html=1;shape=mxgraph.flowchart.on-page_reference;" vertex="1" parent="1">
          <mxGeometry x="400" y="620" width="40" height="40" as="geometry" />
        </mxCell>
        <mxCell id="RBTdbjBAQ5LayfFTRaJk-22" value="" style="edgeStyle=orthogonalEdgeStyle;rounded=0;orthogonalLoop=1;jettySize=auto;html=1;verticalAlign=middle;" edge="1" parent="1" source="RBTdbjBAQ5LayfFTRaJk-19" target="RBTdbjBAQ5LayfFTRaJk-21">
          <mxGeometry relative="1" as="geometry" />
        </mxCell>
        <mxCell id="RBTdbjBAQ5LayfFTRaJk-26" value="" style="edgeStyle=orthogonalEdgeStyle;rounded=0;orthogonalLoop=1;jettySize=auto;html=1;verticalAlign=middle;" edge="1" parent="1" source="RBTdbjBAQ5LayfFTRaJk-19" target="RBTdbjBAQ5LayfFTRaJk-25">
          <mxGeometry relative="1" as="geometry" />
        </mxCell>
        <mxCell id="RBTdbjBAQ5LayfFTRaJk-19" value="Cari&lt;br&gt;Anggota" style="rhombus;whiteSpace=wrap;html=1;verticalAlign=middle;" vertex="1" parent="1">
          <mxGeometry x="445" y="290" width="80" height="80" as="geometry" />
        </mxCell>
        <mxCell id="RBTdbjBAQ5LayfFTRaJk-24" value="" style="edgeStyle=orthogonalEdgeStyle;rounded=0;orthogonalLoop=1;jettySize=auto;html=1;verticalAlign=middle;" edge="1" parent="1" source="RBTdbjBAQ5LayfFTRaJk-21" target="RBTdbjBAQ5LayfFTRaJk-23">
          <mxGeometry relative="1" as="geometry" />
        </mxCell>
        <mxCell id="RBTdbjBAQ5LayfFTRaJk-21" value="Input Nama" style="shape=parallelogram;perimeter=parallelogramPerimeter;whiteSpace=wrap;html=1;fixedSize=1;verticalAlign=middle;" vertex="1" parent="1">
          <mxGeometry x="545" y="315" width="120" height="30" as="geometry" />
        </mxCell>
        <mxCell id="RBTdbjBAQ5LayfFTRaJk-23" value="G" style="verticalLabelPosition=bottom;verticalAlign=middle;html=1;shape=mxgraph.flowchart.on-page_reference;" vertex="1" parent="1">
          <mxGeometry x="585" y="410" width="40" height="40" as="geometry" />
        </mxCell>
        <mxCell id="RBTdbjBAQ5LayfFTRaJk-25" value="H" style="verticalLabelPosition=bottom;verticalAlign=middle;html=1;shape=mxgraph.flowchart.on-page_reference;" vertex="1" parent="1">
          <mxGeometry x="465" y="410" width="40" height="40" as="geometry" />
        </mxCell>
        <mxCell id="RBTdbjBAQ5LayfFTRaJk-28" value="yes" style="text;html=1;align=center;verticalAlign=middle;resizable=0;points=[];autosize=1;" vertex="1" parent="1">
          <mxGeometry x="365" y="380" width="30" height="20" as="geometry" />
        </mxCell>
        <mxCell id="RBTdbjBAQ5LayfFTRaJk-29" value="no" style="text;html=1;align=center;verticalAlign=middle;resizable=0;points=[];autosize=1;" vertex="1" parent="1">
          <mxGeometry x="404" y="303" width="30" height="20" as="geometry" />
        </mxCell>
        <mxCell id="RBTdbjBAQ5LayfFTRaJk-30" value="yes" style="text;html=1;align=center;verticalAlign=middle;resizable=0;points=[];autosize=1;" vertex="1" parent="1">
          <mxGeometry x="525" y="310" width="30" height="20" as="geometry" />
        </mxCell>
        <mxCell id="RBTdbjBAQ5LayfFTRaJk-31" value="no" style="text;html=1;align=center;verticalAlign=middle;resizable=0;points=[];autosize=1;" vertex="1" parent="1">
          <mxGeometry x="485" y="370" width="30" height="20" as="geometry" />
        </mxCell>
      </root>
    </mxGraphModel>
  </diagram>
</mxfile>
